<?xml version="1.0" encoding="UTF-8"?>
<svg xmlns="http://www.w3.org/2000/svg"
        version="1.1" baseProfile="full"
        width="100px" height="100px" viewBox="-50 -50 100 100">
        <title>Aerodrome Symbols</title>
        <desc>ICAO Annex 4 Symbol 84 to 89.</desc>
        <circle cx="0" cy="0" r="28px"  stroke="#669" stroke-width="4px" fill="none" />
        <circle cx="0" cy="0" r="22px"  stroke="#669" stroke-width="2px" fill="none" />
     	<path  d="
M -6 10 L -4 10 L -4 1 L 4 1 L 4 10 L 6 10
L 6 -10 L 4 -10 L 4 -1 L -4 -1 L -4 -10 L -6 -10 Z
" stroke="none" fill="#669" />
</svg>
