<?xml version="1.0" encoding="UTF-8"?>
<svg xmlns="http://www.w3.org/2000/svg"
	version="1.1" baseProfile="full"
	width="100px" height="100px" viewBox="-50 -50 100 100">
	<title>Civil Airport</title>
	<desc>ICAO Symbol 84</desc>
        <circle cx="0" cy="0" r="28px"  stroke="#669" stroke-width="4px" fill="none" />
	<line x1="28" y1="0" x2="35" y2="0"  stroke="#669" stroke-width="4px" fill="none" />
        <line x1="0" y1="28" x2="0" y2="35"  stroke="#669" stroke-width="4px" fill="none" />
        <line x1="-28" y1="0" x2="-35" y2="0"  stroke="#669" stroke-width="4px" fill="none" />
        <line x1="0" y1="-28" x2="0" y2="-35"  stroke="#669" stroke-width="4px" fill="none" />
</svg>
