<?xml version="1.0" encoding="UTF-8"?>
<svg xmlns="http://www.w3.org/2000/svg" width="95" height="95">
<path fill="none" stroke="#000" stroke-width="3" d="m1,1h93v93H1zm0,46.5 23-40h47l23,40-23,40h-47z"/>
<circle cx="47" cy="47" r="7"/>
</svg> 