<?xml version="1.0" encoding="UTF-8"?>
<svg xmlns="http://www.w3.org/2000/svg"
	version="1.1" baseProfile="full"
	width="100px" height="100px" viewBox="-50 -50 100 100">
	<title>Basic radio navigation aid</title>
	<desc>ICAO Symbol 99.</desc>
	<circle cx="0" cy="0" r="20px"  stroke="#669" stroke-width="2px" fill="none" />
	<circle cx="0" cy="0" r="4px" fill="#669" />
</svg>
