<?xml version="1.0" encoding="UTF-8"?>
<svg xmlns="http://www.w3.org/2000/svg"
	version="1.1" baseProfile="full"
	width="100px" height="100px" viewBox="-50 -50 100 100">
	<title>VORTAC - Collocated VOR and TACAN radio navigation aid</title>
	<desc>ICAO Symbol 107.</desc>
	<path d="M 25 0 L 33.66 5 L 21.16 26.65 L 12.5 21.65 L -12.5 21.65 L -21.16 26.65 L -33.66 5 L -25 0 L -12.5 -21.65 L -12.5 -31.65 L 12.5 -31.65 L 12.5 -21.65 Z"  stroke="#669" stroke-width="2px" fill="none" />
	<path d="M 25 0 L 33.66 5 L 21.16 26.65 L 12.5 21.65 Z
M -12.5 21.65 L -21.16 26.65 L -33.66 5 L -25 0 Z
M -12.5 -21.65 L -12.5 -31.65 L 12.5 -31.65 L 12.5 -21.65 Z"  stroke="none" fill="#669" />
	<circle cx="0" cy="0" r="4px" fill="#669" />
</svg>
